…
  
  
#### 5.2.4 Exercises  
\

1. Find all flights that
\
a. Had an arrival delay of two or more hours

```r
filter(flights, arr_delay >= 2)
```

```
## # A tibble: 127,929 × 19
##     year month   day dep_time sched_dep_time dep_delay arr_time
##    <int> <int> <int>    <int>          <int>     <dbl>    <int>
## 1   2013     1     1      517            515         2      830
## 2   2013     1     1      533            529         4      850
## 3   2013     1     1      542            540         2      923
## 4   2013     1     1      554            558        -4      740
## 5   2013     1     1      555            600        -5      913
## 6   2013     1     1      558            600        -2      753
## 7   2013     1     1      558            600        -2      924
## 8   2013     1     1      559            600        -1      941
## 9   2013     1     1      600            600         0      837
## 10  2013     1     1      602            605        -3      821
## # ... with 127,919 more rows, and 12 more variables: sched_arr_time <int>,
## #   arr_delay <dbl>, carrier <chr>, flight <int>, tailnum <chr>,
## #   origin <chr>, dest <chr>, air_time <dbl>, distance <dbl>, hour <dbl>,
## #   minute <dbl>, time_hour <dttm>
```
\
b. Flew to Houston (IAH or HOU)

```r
flights_departed <- filter(flights, !(is.na(dep_time))) # extract only the flights which left
filter(flights_departed, dest=="IAH" | dest=="HOU")
```

```
## # A tibble: 9,193 × 19
##     year month   day dep_time sched_dep_time dep_delay arr_time
##    <int> <int> <int>    <int>          <int>     <dbl>    <int>
## 1   2013     1     1      517            515         2      830
## 2   2013     1     1      533            529         4      850
## 3   2013     1     1      623            627        -4      933
## 4   2013     1     1      728            732        -4     1041
## 5   2013     1     1      739            739         0     1104
## 6   2013     1     1      908            908         0     1228
## 7   2013     1     1     1028           1026         2     1350
## 8   2013     1     1     1044           1045        -1     1352
## 9   2013     1     1     1114            900       134     1447
## 10  2013     1     1     1205           1200         5     1503
## # ... with 9,183 more rows, and 12 more variables: sched_arr_time <int>,
## #   arr_delay <dbl>, carrier <chr>, flight <int>, tailnum <chr>,
## #   origin <chr>, dest <chr>, air_time <dbl>, distance <dbl>, hour <dbl>,
## #   minute <dbl>, time_hour <dttm>
```
\
c. Were operated by United, American, or Delta

```r
filter(flights_departed, carrier=="UA" | carrier=="AA" | carrier=="DL")
```

```
## # A tibble: 137,833 × 19
##     year month   day dep_time sched_dep_time dep_delay arr_time
##    <int> <int> <int>    <int>          <int>     <dbl>    <int>
## 1   2013     1     1      517            515         2      830
## 2   2013     1     1      533            529         4      850
## 3   2013     1     1      542            540         2      923
## 4   2013     1     1      554            600        -6      812
## 5   2013     1     1      554            558        -4      740
## 6   2013     1     1      558            600        -2      753
## 7   2013     1     1      558            600        -2      924
## 8   2013     1     1      558            600        -2      923
## 9   2013     1     1      559            600        -1      941
## 10  2013     1     1      559            600        -1      854
## # ... with 137,823 more rows, and 12 more variables: sched_arr_time <int>,
## #   arr_delay <dbl>, carrier <chr>, flight <int>, tailnum <chr>,
## #   origin <chr>, dest <chr>, air_time <dbl>, distance <dbl>, hour <dbl>,
## #   minute <dbl>, time_hour <dttm>
```

```r
filter(flights_departed, carrier %in% c("UA", "AA", "DL"))
```

```
## # A tibble: 137,833 × 19
##     year month   day dep_time sched_dep_time dep_delay arr_time
##    <int> <int> <int>    <int>          <int>     <dbl>    <int>
## 1   2013     1     1      517            515         2      830
## 2   2013     1     1      533            529         4      850
## 3   2013     1     1      542            540         2      923
## 4   2013     1     1      554            600        -6      812
## 5   2013     1     1      554            558        -4      740
## 6   2013     1     1      558            600        -2      753
## 7   2013     1     1      558            600        -2      924
## 8   2013     1     1      558            600        -2      923
## 9   2013     1     1      559            600        -1      941
## 10  2013     1     1      559            600        -1      854
## # ... with 137,823 more rows, and 12 more variables: sched_arr_time <int>,
## #   arr_delay <dbl>, carrier <chr>, flight <int>, tailnum <chr>,
## #   origin <chr>, dest <chr>, air_time <dbl>, distance <dbl>, hour <dbl>,
## #   minute <dbl>, time_hour <dttm>
```
\
d. Departed in summer (July, August, and September)

```r
filter(flights_departed, month == 7 | month == 8 | month == 9)
```

```
## # A tibble: 84,448 × 19
##     year month   day dep_time sched_dep_time dep_delay arr_time
##    <int> <int> <int>    <int>          <int>     <dbl>    <int>
## 1   2013     7     1        1           2029       212      236
## 2   2013     7     1        2           2359         3      344
## 3   2013     7     1       29           2245       104      151
## 4   2013     7     1       43           2130       193      322
## 5   2013     7     1       44           2150       174      300
## 6   2013     7     1       46           2051       235      304
## 7   2013     7     1       48           2001       287      308
## 8   2013     7     1       58           2155       183      335
## 9   2013     7     1      100           2146       194      327
## 10  2013     7     1      100           2245       135      337
## # ... with 84,438 more rows, and 12 more variables: sched_arr_time <int>,
## #   arr_delay <dbl>, carrier <chr>, flight <int>, tailnum <chr>,
## #   origin <chr>, dest <chr>, air_time <dbl>, distance <dbl>, hour <dbl>,
## #   minute <dbl>, time_hour <dttm>
```

```r
filter(flights_departed, month %in% c(7:9))
```

```
## # A tibble: 84,448 × 19
##     year month   day dep_time sched_dep_time dep_delay arr_time
##    <int> <int> <int>    <int>          <int>     <dbl>    <int>
## 1   2013     7     1        1           2029       212      236
## 2   2013     7     1        2           2359         3      344
## 3   2013     7     1       29           2245       104      151
## 4   2013     7     1       43           2130       193      322
## 5   2013     7     1       44           2150       174      300
## 6   2013     7     1       46           2051       235      304
## 7   2013     7     1       48           2001       287      308
## 8   2013     7     1       58           2155       183      335
## 9   2013     7     1      100           2146       194      327
## 10  2013     7     1      100           2245       135      337
## # ... with 84,438 more rows, and 12 more variables: sched_arr_time <int>,
## #   arr_delay <dbl>, carrier <chr>, flight <int>, tailnum <chr>,
## #   origin <chr>, dest <chr>, air_time <dbl>, distance <dbl>, hour <dbl>,
## #   minute <dbl>, time_hour <dttm>
```
\
e. Arrived more than two hours late, but didn’t leave late

```r
filter(flights_departed, arr_delay > 120 & !(dep_delay > 0))
```

```
## # A tibble: 29 × 19
##     year month   day dep_time sched_dep_time dep_delay arr_time
##    <int> <int> <int>    <int>          <int>     <dbl>    <int>
## 1   2013     1    27     1419           1420        -1     1754
## 2   2013    10     7     1350           1350         0     1736
## 3   2013    10     7     1357           1359        -2     1858
## 4   2013    10    16      657            700        -3     1258
## 5   2013    11     1      658            700        -2     1329
## 6   2013     3    18     1844           1847        -3       39
## 7   2013     4    17     1635           1640        -5     2049
## 8   2013     4    18      558            600        -2     1149
## 9   2013     4    18      655            700        -5     1213
## 10  2013     5    22     1827           1830        -3     2217
## # ... with 19 more rows, and 12 more variables: sched_arr_time <int>,
## #   arr_delay <dbl>, carrier <chr>, flight <int>, tailnum <chr>,
## #   origin <chr>, dest <chr>, air_time <dbl>, distance <dbl>, hour <dbl>,
## #   minute <dbl>, time_hour <dttm>
```
\
f. Were delayed by at least an hour, but made up over 30 minutes in flight

```r
filter(flights_departed, dep_delay >= 60 & (dep_delay - arr_delay) > 30)
```

```
## # A tibble: 1,844 × 19
##     year month   day dep_time sched_dep_time dep_delay arr_time
##    <int> <int> <int>    <int>          <int>     <dbl>    <int>
## 1   2013     1     1     2205           1720       285       46
## 2   2013     1     1     2326           2130       116      131
## 3   2013     1     3     1503           1221       162     1803
## 4   2013     1     3     1839           1700        99     2056
## 5   2013     1     3     1850           1745        65     2148
## 6   2013     1     3     1941           1759       102     2246
## 7   2013     1     3     1950           1845        65     2228
## 8   2013     1     3     2015           1915        60     2135
## 9   2013     1     3     2257           2000       177       45
## 10  2013     1     4     1917           1700       137     2135
## # ... with 1,834 more rows, and 12 more variables: sched_arr_time <int>,
## #   arr_delay <dbl>, carrier <chr>, flight <int>, tailnum <chr>,
## #   origin <chr>, dest <chr>, air_time <dbl>, distance <dbl>, hour <dbl>,
## #   minute <dbl>, time_hour <dttm>
```
\
g. Departed between midnight and 6am (inclusive)

```r
filter(flights_departed, !(dep_time > 0600 & dep_time < 2400))
```

```
## # A tibble: 9,373 × 19
##     year month   day dep_time sched_dep_time dep_delay arr_time
##    <int> <int> <int>    <int>          <int>     <dbl>    <int>
## 1   2013     1     1      517            515         2      830
## 2   2013     1     1      533            529         4      850
## 3   2013     1     1      542            540         2      923
## 4   2013     1     1      544            545        -1     1004
## 5   2013     1     1      554            600        -6      812
## 6   2013     1     1      554            558        -4      740
## 7   2013     1     1      555            600        -5      913
## 8   2013     1     1      557            600        -3      709
## 9   2013     1     1      557            600        -3      838
## 10  2013     1     1      558            600        -2      753
## # ... with 9,363 more rows, and 12 more variables: sched_arr_time <int>,
## #   arr_delay <dbl>, carrier <chr>, flight <int>, tailnum <chr>,
## #   origin <chr>, dest <chr>, air_time <dbl>, distance <dbl>, hour <dbl>,
## #   minute <dbl>, time_hour <dttm>
```
\
2. Another useful dplyr filtering helper is between(). What does it do? Can you use it to simplify the code needed to answer the previous challenges?

\
between() is a shortcut for x >= left & x <= right

\
Departed in summer (July, August, and September)

```r
flights_departed[between(flights$month, 7, 9),]
```

```
## # A tibble: 86,326 × 19
##     year month   day dep_time sched_dep_time dep_delay arr_time
##    <int> <int> <int>    <int>          <int>     <dbl>    <int>
## 1   2013     7     8     1142           1144        -2     1303
## 2   2013     7     8     1142           1145        -3     1331
## 3   2013     7     8     1143           1152        -9     1256
## 4   2013     7     8     1143           1115        28     1257
## 5   2013     7     8     1145           1133        12     1450
## 6   2013     7     8     1149           1030        79     1444
## 7   2013     7     8     1152           1153        -1     1413
## 8   2013     7     8     1152           1155        -3     1433
## 9   2013     7     8     1152           1110        42     1434
## 10  2013     7     8     1152           1130        22     1352
## # ... with 86,316 more rows, and 12 more variables: sched_arr_time <int>,
## #   arr_delay <dbl>, carrier <chr>, flight <int>, tailnum <chr>,
## #   origin <chr>, dest <chr>, air_time <dbl>, distance <dbl>, hour <dbl>,
## #   minute <dbl>, time_hour <dttm>
```
\
Departed between midnight and 6am (inclusive)

```r
flights_departed[!(between(flights_departed$dep_time, 601, 2359)),]
```

```
## # A tibble: 9,373 × 19
##     year month   day dep_time sched_dep_time dep_delay arr_time
##    <int> <int> <int>    <int>          <int>     <dbl>    <int>
## 1   2013     1     1      517            515         2      830
## 2   2013     1     1      533            529         4      850
## 3   2013     1     1      542            540         2      923
## 4   2013     1     1      544            545        -1     1004
## 5   2013     1     1      554            600        -6      812
## 6   2013     1     1      554            558        -4      740
## 7   2013     1     1      555            600        -5      913
## 8   2013     1     1      557            600        -3      709
## 9   2013     1     1      557            600        -3      838
## 10  2013     1     1      558            600        -2      753
## # ... with 9,363 more rows, and 12 more variables: sched_arr_time <int>,
## #   arr_delay <dbl>, carrier <chr>, flight <int>, tailnum <chr>,
## #   origin <chr>, dest <chr>, air_time <dbl>, distance <dbl>, hour <dbl>,
## #   minute <dbl>, time_hour <dttm>
```
…
\


#### 5.3.1 Exercises

\
1. How could you use arrange() to sort all missing values to the start? (Hint: use is.na()).

```r
arrange(flights, is.na(dep_time)) # missing values to the end
```

```
## # A tibble: 336,776 × 19
##     year month   day dep_time sched_dep_time dep_delay arr_time
##    <int> <int> <int>    <int>          <int>     <dbl>    <int>
## 1   2013     1     1      517            515         2      830
## 2   2013     1     1      533            529         4      850
## 3   2013     1     1      542            540         2      923
## 4   2013     1     1      544            545        -1     1004
## 5   2013     1     1      554            600        -6      812
## 6   2013     1     1      554            558        -4      740
## 7   2013     1     1      555            600        -5      913
## 8   2013     1     1      557            600        -3      709
## 9   2013     1     1      557            600        -3      838
## 10  2013     1     1      558            600        -2      753
## # ... with 336,766 more rows, and 12 more variables: sched_arr_time <int>,
## #   arr_delay <dbl>, carrier <chr>, flight <int>, tailnum <chr>,
## #   origin <chr>, dest <chr>, air_time <dbl>, distance <dbl>, hour <dbl>,
## #   minute <dbl>, time_hour <dttm>
```

```r
arrange(flights, desc(is.na(dep_time))) # missing values to the start
```

```
## # A tibble: 336,776 × 19
##     year month   day dep_time sched_dep_time dep_delay arr_time
##    <int> <int> <int>    <int>          <int>     <dbl>    <int>
## 1   2013     1     1       NA           1630        NA       NA
## 2   2013     1     1       NA           1935        NA       NA
## 3   2013     1     1       NA           1500        NA       NA
## 4   2013     1     1       NA            600        NA       NA
## 5   2013     1     2       NA           1540        NA       NA
## 6   2013     1     2       NA           1620        NA       NA
## 7   2013     1     2       NA           1355        NA       NA
## 8   2013     1     2       NA           1420        NA       NA
## 9   2013     1     2       NA           1321        NA       NA
## 10  2013     1     2       NA           1545        NA       NA
## # ... with 336,766 more rows, and 12 more variables: sched_arr_time <int>,
## #   arr_delay <dbl>, carrier <chr>, flight <int>, tailnum <chr>,
## #   origin <chr>, dest <chr>, air_time <dbl>, distance <dbl>, hour <dbl>,
## #   minute <dbl>, time_hour <dttm>
```
\
2. Sort flights to find the most delayed flights. Find the flights that left earliest.

```r
arrange(flights_departed, desc(dep_delay))
```

```
## # A tibble: 328,521 × 19
##     year month   day dep_time sched_dep_time dep_delay arr_time
##    <int> <int> <int>    <int>          <int>     <dbl>    <int>
## 1   2013     1     9      641            900      1301     1242
## 2   2013     6    15     1432           1935      1137     1607
## 3   2013     1    10     1121           1635      1126     1239
## 4   2013     9    20     1139           1845      1014     1457
## 5   2013     7    22      845           1600      1005     1044
## 6   2013     4    10     1100           1900       960     1342
## 7   2013     3    17     2321            810       911      135
## 8   2013     6    27      959           1900       899     1236
## 9   2013     7    22     2257            759       898      121
## 10  2013    12     5      756           1700       896     1058
## # ... with 328,511 more rows, and 12 more variables: sched_arr_time <int>,
## #   arr_delay <dbl>, carrier <chr>, flight <int>, tailnum <chr>,
## #   origin <chr>, dest <chr>, air_time <dbl>, distance <dbl>, hour <dbl>,
## #   minute <dbl>, time_hour <dttm>
```

```r
arrange(flights_departed, dep_delay)
```

```
## # A tibble: 328,521 × 19
##     year month   day dep_time sched_dep_time dep_delay arr_time
##    <int> <int> <int>    <int>          <int>     <dbl>    <int>
## 1   2013    12     7     2040           2123       -43       40
## 2   2013     2     3     2022           2055       -33     2240
## 3   2013    11    10     1408           1440       -32     1549
## 4   2013     1    11     1900           1930       -30     2233
## 5   2013     1    29     1703           1730       -27     1947
## 6   2013     8     9      729            755       -26     1002
## 7   2013    10    23     1907           1932       -25     2143
## 8   2013     3    30     2030           2055       -25     2213
## 9   2013     3     2     1431           1455       -24     1601
## 10  2013     5     5      934            958       -24     1225
## # ... with 328,511 more rows, and 12 more variables: sched_arr_time <int>,
## #   arr_delay <dbl>, carrier <chr>, flight <int>, tailnum <chr>,
## #   origin <chr>, dest <chr>, air_time <dbl>, distance <dbl>, hour <dbl>,
## #   minute <dbl>, time_hour <dttm>
```
the most delayed flight: HA 51 departed 1301 min later than scheduled\
the flight that left earliest: B6 97 departed 43 min earlier than scheduled

\
3. Sort flights to find the fastest flights.

```r
arrange(flights_departed, desc(distance/air_time))
```

```
## # A tibble: 328,521 × 19
##     year month   day dep_time sched_dep_time dep_delay arr_time
##    <int> <int> <int>    <int>          <int>     <dbl>    <int>
## 1   2013     5    25     1709           1700         9     1923
## 2   2013     7     2     1558           1513        45     1745
## 3   2013     5    13     2040           2025        15     2225
## 4   2013     3    23     1914           1910         4     2045
## 5   2013     1    12     1559           1600        -1     1849
## 6   2013    11    17      650            655        -5     1059
## 7   2013     2    21     2355           2358        -3      412
## 8   2013    11    17      759            800        -1     1212
## 9   2013    11    16     2003           1925        38       17
## 10  2013    11    16     2349           2359       -10      402
## # ... with 328,511 more rows, and 12 more variables: sched_arr_time <int>,
## #   arr_delay <dbl>, carrier <chr>, flight <int>, tailnum <chr>,
## #   origin <chr>, dest <chr>, air_time <dbl>, distance <dbl>, hour <dbl>,
## #   minute <dbl>, time_hour <dttm>
```
…
