…
4. Why might you want to look at a frequency polygon of absolute residuals? What are the pros and cons compared to looking at the raw residuals?

    The frequency polygon of absolute residuals help us understand the spread of the residuals. This helps us calibrate the quality of the model: how far away are the predictions from the observed values? The average of the residual should always be 0 for good model.


23.4.5 Exercises

1. What happens if you repeat the analysis of sim2 using a model without an intercept. What happens to the model equation? What happens to the predictions?

```r
sim2
```

```
## # A tibble: 40 × 2
##        x          y
##    <chr>      <dbl>
## 1      a  1.9353632
## 2      a  1.1764886
## 3      a  1.2436855
## 4      a  2.6235489
## 5      a  1.1120381
## 6      a  0.8660030
## 7      a -0.9100875
## 8      a  0.7207628
## 9      a  0.6865540
## 10     a  2.0673079
## # ... with 30 more rows
```
…
2. Use model_matrix() to explore the equations generated for the models I fit to sim3 and sim4. Why is * a good shorthand for interaction?

```r
sim3
```

```
## # A tibble: 120 × 5
##       x1     x2   rep          y    sd
##    <int> <fctr> <int>      <dbl> <dbl>
## 1      1      a     1 -0.5707363     2
## 2      1      a     2  1.1841503     2
## 3      1      a     3  2.2373204     2
## 4      1      b     1  7.4366963     2
## 5      1      b     2  8.5182934     2
## 6      1      b     3  7.7239098     2
## 7      1      c     1  6.5067480     2
## 8      1      c     2  5.7900643     2
## 9      1      c     3  6.0721817     2
## 10     1      d     1  2.1096727     2
## # ... with 110 more rows
```

```r
model_matrix(sim3, y ~ x1 + x2)
```

```
## # A tibble: 120 × 5
##    `(Intercept)`    x1   x2b   x2c   x2d
##            <dbl> <dbl> <dbl> <dbl> <dbl>
## 1              1     1     0     0     0
## 2              1     1     0     0     0
## 3              1     1     0     0     0
## 4              1     1     1     0     0
## 5              1     1     1     0     0
## 6              1     1     1     0     0
## 7              1     1     0     1     0
## 8              1     1     0     1     0
## 9              1     1     0     1     0
## 10             1     1     0     0     1
## # ... with 110 more rows
```

```r
model_matrix(sim3, y ~ x1 * x2)
```

```
## # A tibble: 120 × 8
##    `(Intercept)`    x1   x2b   x2c   x2d `x1:x2b` `x1:x2c` `x1:x2d`
##            <dbl> <dbl> <dbl> <dbl> <dbl>    <dbl>    <dbl>    <dbl>
## 1              1     1     0     0     0        0        0        0
## 2              1     1     0     0     0        0        0        0
## 3              1     1     0     0     0        0        0        0
## 4              1     1     1     0     0        1        0        0
## 5              1     1     1     0     0        1        0        0
## 6              1     1     1     0     0        1        0        0
## 7              1     1     0     1     0        0        1        0
## 8              1     1     0     1     0        0        1        0
## 9              1     1     0     1     0        0        1        0
## 10             1     1     0     0     1        0        0        1
## # ... with 110 more rows
```
…
```r
mod1 <- lm(y ~ x1 + x2, data = sim3)
mod2 <- lm(y ~ x1 * x2, data = sim3)
```


4. For sim4, which of mod1 and mod2 is better? I think mod2 does a slightly better job at removing patterns, but it’s pretty subtle. Can you come up with a plot to support my claim?

```r
sim4
```

```
## # A tibble: 300 × 4
##       x1         x2   rep           y
##    <dbl>      <dbl> <int>       <dbl>
## 1     -1 -1.0000000     1  4.24767769
## 2     -1 -1.0000000     2  1.20599701
## 3     -1 -1.0000000     3  0.35347770
## 4     -1 -0.7777778     1 -0.04665814
## 5     -1 -0.7777778     2  4.63868987
## 6     -1 -0.7777778     3  1.37709540
## 7     -1 -0.5555556     1  0.97522088
## 8     -1 -0.5555556     2  2.49963753
## 9     -1 -0.5555556     3  2.70474837
## 10    -1 -0.3333333     1  0.55751522
## # ... with 290 more rows
```
…
